{
  "type": "service_account",
  "project_id": "customerquestionsandanswer-tkg",
  "private_key_id": "2ecec9ad43cfdb5152541339cb7abfabf851ac72",
  "private_key": "-----BEGIN PRIVATE KEY-----\nMIIEuwIBADANBgkqhkiG9w0BAQEFAASCBKUwggShAgEAAoIBAQC6L3Yg98pXQkaY\nsKHeBLLcq7+cnkdtF7TD8AQ4V2DE5XVrS5gr9wt9wMbPzlsPNzzLSeiSWUQlZAmV\nCNxW+1PnVg7cW9guQrj3VR1g00kiEps3+tqazVPTnSU+n6N+F3QvokpgKmr96kwd\neeS24PFl+WwVFalnosylEdnSnxGZ/f53xpxGYRrS91wm0EVbX/U2w8MHGCx1qfO+\nZ2oDImBIG9UinMxgftLFMAsotfROy677wGkxCDc9MKju/qqyzAlLnHJcfAwwgfPN\noDHJCoTZNALW17HX6K94ivPC5RojLKXTYTMDH0wADc7lYle6rjtekdtGB9GHCXKh\nZTWwNGgZAgMBAAECgf8o89ndQfkI4yNzWhFlK/i98qeaiHMI84lbd2mm+uaRK55l\nJgSuIN+1bfTG8XIucs1H6c8r57/GSOuJgRozE+ROZb33cTAVv+CBw56gXlLun35s\naiirXhDPH6MwENS6sJKOklrJs+AqHkCTkItvA7YVUGwaNymL8WGwi8jRhRMvZAqh\nDxlSggnqpIbejtdnripCxyp54avstm2MPDeeA0vQUmDJXNm2DOB3G5vRBLWxJmku\nA1HoMR/zvMQadqUwFjI+JNhdgyUguVLjgCiPqfVZbAnXGWHpYGcKURNrYSHonju8\nQVzDCmiNi/FZMm2nst1c8wHeA/l4vh8ZI6rqoAECgYEA/zCTXCAv3yugaFOzEGnW\n/esXXWXV2WMLDCA1wEnVBk1GaWmGzMSL3O1KJRJ1cxj6c0brcFydfMxHAJgYOLzf\nP9PaWs7N2A94U9BL6gPbJQIJ/IyWzciL230UkPqZ7D8eH4NDjGIjygmJRmISwTKq\nrH/JLC3+P5aeqIii5eEz8BkCgYEAusbMI3Z1FclC98ZjeU5rNGWWG00Lh82nXl6r\niGfUZv/tHs8n4rJfx6j9RLZrJHY2FUujnROvwJsa//wDaC4h0Bahix4UA/ju5FJX\no2O0wHGGN/kX75ffdYmQ60nZnEpKtn+v4QDJlxQOdRKkRscVp0Tyg8OcT/fDxtCs\nNjmzOAECgYBTj8BxJkkGtu5ruxyjf0TbGKQp/TKtYHU5n0J6mLKcwakQ03FElAeI\nbFsfEJBNBBzeqpZl0K3xM6L8WtFzosUnzWNu4NEestIf/9Eb6+9SivxiKlcnQ0go\nsyiM4MKOTYy7nOv9iBVYDw9YcLzbbo/ctGtXgCgFAnkpjrRoufmb4QKBgQCs85To\nabJ14A4g/hXyqEjhFghvc2Jv+GE5I5TXFL48OlRKKS0X4HCMo9ESpZCFDOl7wrTY\nqPgf9ACGdch52e35kFs6RTnni8U6q3z3kUY4xWaxwfkGJa4IWsBU/+d/r9OLNqWY\nRnBlc28HvaFc4NEOOOwQUzwVWKpzGZu+AqQQAQKBgGXdv7Uny6m0i4MZ8i5Q0J+e\nGeetbANJ0TMwg9YYfxsb5FOwAldGwi561yeUnBAZZZxSHY9C6eiVowIhbH/GVUoM\nWrMHqVUTJ/zUYYgEuMHNIWmqs3ioEuqQbqZQlThzGfhxBZIuelUTBC2fusd3hxQ/\n4GE/+gLR1criiQMxFgTh\n-----END PRIVATE KEY-----\n",
  "client_email": "dialogflow-iklgoc@customerquestionsandanswer-tkg.iam.gserviceaccount.com",
  "client_id": "103648667135409928966",
  "auth_uri": "https://accounts.google.com/o/oauth2/auth",
  "token_uri": "https://oauth2.googleapis.com/token",
  "auth_provider_x509_cert_url": "https://www.googleapis.com/oauth2/v1/certs",
  "client_x509_cert_url": "https://www.googleapis.com/robot/v1/metadata/x509/dialogflow-iklgoc%40customerquestionsandanswer-tkg.iam.gserviceaccount.com"
}
